[
    {
        "locationid":"0",
        "name":"Roma",
        "information":"Lorem ipsum dolor sit amet, consectetur adipisicing elit. Asperiores minima eaque blanditiis ipsa, doloribus consectetur provident officiis voluptatem",
        "address":"via siping 66",
        "contact":"+86 88981958",
        "photo":"../assets/img/14.jpg"
        
    },
    {
        "locationid":"1",
        "name":"Milan",
        "information":"Lorem ipsum dolor sit amet, consectetur adipisicing elit. Asperiores minima eaque blanditiis ipsa, doloribus consectetur provident officiis voluptatem",
        "address":"via Guoding 34",
        "contact":"+86 84576830",
        "photo":"../assets/img/15.jpg"
        
    },
    {
        "locationid":"2",
        "name":"Bovisa",
        "information":"Lorem ipsum dolor sit amet, consectetur adipisicing elit. Asperiores minima eaque blanditiis ipsa, doloribus consectetur provident officiis voluptatem",
        "address":"via xuhui 2008",
        "contact":"+86 88981954",
        "photo":"../assets/img/16.jpg"
        
    },
    {
        "locationid":"3",
        "name":"Bologna",
        "information":"Lorem ipsum dolor sit amet, consectetur adipisicing elit. Asperiores minima eaque blanditiis ipsa, doloribus consectetur provident officiis voluptatem",
        "address":"via Moziqiao 36",
        "contact":"+86 88981952",
        "photo":"../assets/img/17.jpg"
        
    },
    {
        "locationid":"4",
        "name":"Torino",
        "information":"Lorem ipsum dolor sit amet, consectetur adipisicing elit. Asperiores minima eaque blanditiis ipsa, doloribus consectetur provident officiis voluptatem",
        "address":"via Liulin 39",
        "contact":"+86 88981955",
        "photo":"../assets/img/18.jpg"
        
    },
    {
        "locationid":"5",
        "name":"Genova",
        "information":"Lorem ipsum dolor sit amet, consectetur adipisicing elit. Asperiores minima eaque blanditiis ipsa, doloribus consectetur provident officiis voluptatem",
        "address":"via wudaokou 2",
        "contact":"+86 88981934",
        "photo":"../assets/img/19.jpg"
        
    }
]